calibrationIndex,Time,DeltaTime,msg1,msg2
1,0.24,0.01,-0.03,-0.96
2,0.25,0.01,-0.03,-0.96
3,0.26,0.01,-0.03,-0.96
4,0.27,0.01,-0.02,-0.96
5,0.28,0.01,-0.03,-0.96
6,0.29,0.01,-0.03,-0.96
7,0.3,0.01,-0.03,-0.96
8,0.31,0.01,-0.03,-0.96
9,0.32,0.01,-0.03,-0.96
10,0.33,0.01,-0.03,-0.96
11,0.34,0.01,-0.03,-0.96
12,0.35,0.01,-0.03,-0.96
13,0.36,0.01,-0.03,-0.96
14,0.37,0.01,-0.03,-0.96
15,0.38,0.01,-0.03,-0.96
16,0.39,0.01,-0.03,-0.96
17,0.4,0.01,-0.03,-0.96
18,0.41,0.01,-0.03,-0.96
19,0.42,0.01,-0.03,-0.96
20,0.43,0.01,-0.02,-0.96
21,0.44,0.01,-0.03,-0.96
22,0.45,0.01,-0.03,-0.96
23,0.46,0.01,-0.03,-0.96
24,0.47,0.01,-0.03,-0.96
25,0.48,0.01,-0.03,-0.96
26,0.49,0.01,-0.03,-0.96
27,0.5,0.01,-0.03,-0.96
28,0.51,0.01,-0.03,-0.96
29,0.52,0.01,-0.03,-0.96
30,0.53,0.01,-0.03,-0.96
